<svg width="513" height="70" viewBox="0 0 513 70" fill="none" xmlns="http://www.w3.org/2000/svg">
<path d="M0.736389 68.2645C0.736389 68.2645 103.024 66.668 171.216 54.9606C239.408 43.2531 273.504 17.7096 341.695 9.72722C409.887 1.74487 512.175 1.74487 512.175 1.74487" stroke="#1F78B4" stroke-width="2"/>
</svg>
