<svg width="10" height="10" viewBox="0 0 10 10" fill="none" xmlns="http://www.w3.org/2000/svg">
<path d="M5.17492 9.20589C4.02802 9.20589 2.9281 8.7309 2.11703 7.8854C1.30595 7.03989 0.85014 5.89309 0.849854 4.69721C0.849567 3.50133 1.30481 2.3543 2.11548 1.50837C2.92615 0.662435 4.02585 0.186878 5.17274 0.18628C6.31963 0.185682 7.4198 0.660092 8.23129 1.50518C9.04277 2.35026 9.49912 3.49682 9.49998 4.6927C9.50084 5.88858 9.04614 7.03585 8.23587 7.8822C7.42561 8.72856 6.32613 9.20469 5.17924 9.20588L5.17492 9.20589Z" fill="#A6CEE3"/>
</svg>
