<svg width="30" height="17" viewBox="0 0 30 17" fill="none" xmlns="http://www.w3.org/2000/svg">
<path d="M26.6571 0H3.52569C1.85937 0 0.508545 1.22017 0.508545 2.72533V13.6267C0.508545 15.1318 1.85937 16.352 3.52569 16.352H26.6571C28.3234 16.352 29.6743 15.1318 29.6743 13.6267V2.72533C29.6743 1.22017 28.3234 0 26.6571 0Z" fill="#6CD5D0"/>
</svg>
