<?xml version="1.0" encoding="utf-8"?>
<!-- Generator: Adobe Illustrator 22.0.1, SVG Export Plug-In . SVG Version: 6.00 Build 0)  -->
<svg version="1.1" xmlns="http://www.w3.org/2000/svg" xmlns:xlink="http://www.w3.org/1999/xlink" x="0px" y="0px"
	 viewBox="0 0 25.4 25.4" style="enable-background:new 0 0 25.4 25.4;" xml:space="preserve">
<style type="text/css">
	.st0{fill:#FFFFFF;}
	.st1{fill:#F2F2F2;}
	.st2{fill:#2E353E;}
	.st3{fill:#8E8E8E;}
	.st4{fill:#231F20;}
	.st5{fill:#787878;}
	.st6{fill:#0057ff;}
	.st7{clip-path:url(#SVGID_4_);fill:url(#SVGID_5_);}
	.st8{clip-path:url(#SVGID_4_);fill:url(#SVGID_6_);}
	.st9{clip-path:url(#SVGID_4_);fill:#3F4E52;}
	.st10{clip-path:url(#SVGID_4_);}
	.st11{fill:#594B49;}
	.st12{fill:#F7DDA7;}
	.st13{fill:#EACC93;}
	.st14{fill:#FFE6B7;}
	.st15{fill:#96C0DB;}
	.st16{fill:#8DB1CD;}
	.st17{fill:#8E7264;}
	.st18{fill:#E96E63;}
	.st19{fill:#49BA83;}
	.st20{fill:#5388C6;}
	.st21{fill:#F16A69;}
	.st22{fill:#FACB15;}
	.st23{fill:#ADADAD;}
	.st24{fill:#838383;}
	.st25{fill:#989898;}
	.st26{fill:url(#SVGID_7_);}
	.st27{fill:#AEAFAE;}
	.st28{fill:none;stroke:#FFFFFF;stroke-width:4;stroke-miterlimit:10;}
	.st29{opacity:0.4;}
	.st30{fill:#424243;}
	.st31{fill:#919090;}
	.st32{fill:none;stroke:#CCCCCD;stroke-width:0.3;stroke-miterlimit:10;}
	.st33{fill:#EDECED;}
	.st34{fill:#A9A9AA;}
	.st35{clip-path:url(#SVGID_9_);}
	.st36{fill:url(#SVGID_10_);}
	.st37{opacity:0.6;}
	.st38{fill:none;}
	.st39{fill:#B2B2B2;}
	.st40{fill:#A0A0A0;}
	.st41{fill:#CECECD;}
	.st42{fill:#585F66;}
	.st43{fill:#49BA86;}
	.st44{fill:none;stroke:#0057ff;stroke-miterlimit:10;}
	.st45{fill:none;stroke:#868686;stroke-width:0.3;stroke-miterlimit:10;}
	.st46{fill:#383838;}
	.st47{fill:#6B6B6B;}
	.st48{fill:url(#SVGID_11_);}
	.st49{fill:#C1C1C1;}
	.st50{fill:#A8A8A8;}
	.st51{fill:#7F848A;}
	.st52{opacity:0.3;fill:#FFFFFF;}
	.st53{fill:none;stroke:#686868;stroke-width:0.3;stroke-miterlimit:10;}
	.st54{fill:none;stroke:#0057ff;stroke-width:4;stroke-miterlimit:10;}
	.st55{fill:none;stroke:#000000;stroke-width:2;stroke-miterlimit:10;}
	.st56{clip-path:url(#SVGID_12_);fill:url(#SVGID_13_);}
	.st57{clip-path:url(#SVGID_12_);fill:url(#SVGID_14_);}
	.st58{clip-path:url(#SVGID_12_);fill:#3F4E52;}
	.st59{clip-path:url(#SVGID_12_);}
	.st60{fill:#3F4040;}
	.st61{fill:#E9EBED;}
	.st62{fill:none;stroke:#EAEAE9;stroke-width:0.524;stroke-miterlimit:10;}
	.st63{opacity:0.7;}
	.st64{fill:#A4A4A4;}
	.st65{opacity:0.6;fill:#F2F2F2;}
	.st66{fill:#CCCCCC;}
	.st67{fill:#E6E6E6;}
	.st68{fill:url(#SVGID_15_);}
	.st69{fill:#25BCD2;}
	.st70{fill:#2B2B2B;}
	.st71{fill:none;stroke:#8E8E8E;stroke-width:0.3;stroke-miterlimit:10;}
	.st72{fill:#D3D3D3;}
	.st73{fill:#4C4C4C;}
	.st74{fill:none;stroke:#0057ff;stroke-width:2;stroke-miterlimit:10;}
	.st75{fill:#F3F3F3;}
	.st76{fill:#E8E8E8;}
	.st77{opacity:0.8;}
	.st78{fill:#7C7C7C;}
	.st79{fill:none;stroke:#34BBD4;stroke-width:3;stroke-miterlimit:10;}
	.st80{fill:#53DBC4;}
	.st81{fill:none;stroke:#B6B6B7;stroke-width:0.8257;stroke-miterlimit:10;}
	.st82{fill:#A2A2A3;}
	.st83{clip-path:url(#SVGID_16_);fill:url(#SVGID_17_);}
	.st84{clip-path:url(#SVGID_16_);fill:url(#SVGID_18_);}
	.st85{clip-path:url(#SVGID_16_);fill:#3F4E52;}
	.st86{clip-path:url(#SVGID_16_);}
	.st87{fill:none;stroke:#C1C0C0;stroke-width:0.3;stroke-miterlimit:10;}
	.st88{fill:#AAAAAA;}
	.st89{fill:#777776;}
	.st90{fill:#545454;}
	.st91{fill:none;stroke:#FFFFFF;stroke-width:0.5;stroke-miterlimit:10;}
	.st92{fill:#FF3B3B;}
	.st93{opacity:0.5;}
	.st94{fill:#AFAFAF;}
	.st95{fill:none;stroke:#2B2B2B;stroke-miterlimit:10;}
	.st96{fill:#595959;}
</style>
<g id="background">
</g>
<g id="Layer_1">
	<path class="st0" d="M9.1,17l-4.7-4.7l-1.6,1.6l6.3,6.3L22.6,6.7L21,5.1L9.1,17z"/>
</g>
</svg>
